Mon Oct 29 21:42:47 2012 :: Booting Database
 0 0 0 0 0 0 0 0 0 0 0 0 0 0 0 0 0 0 0 0 0 0 0 0 0 0 0 0 0 0 0 0
Mon Oct 29 21:42:47 2012 :: [*****] BOOT: ---------------------[ Boot Log ]--------------------
Mon Oct 29 21:42:47 2012 :: Loading commands
Mon Oct 29 21:42:47 2012 :: Loading sysdata configuration...
Mon Oct 29 21:42:47 2012 :: Loading socials
Mon Oct 29 21:42:47 2012 :: Loading skill table
Mon Oct 29 21:42:47 2012 :: Sorting skill table...
Mon Oct 29 21:42:47 2012 :: Remapping slots to sns
Mon Oct 29 21:42:47 2012 :: Loading classes
Mon Oct 29 21:42:47 2012 :: Loading races
Mon Oct 29 21:42:47 2012 :: Loading herb table
Mon Oct 29 21:42:47 2012 :: Loading tongues
Mon Oct 29 21:42:47 2012 :: Making wizlist
Mon Oct 29 21:42:47 2012 :: Building wizinfo
Mon Oct 29 21:42:47 2012 :: Initializing request pipe
Mon Oct 29 21:42:47 2012 :: Initializing random number generator
Mon Oct 29 21:42:47 2012 :: Setting time and weather
Mon Oct 29 21:42:47 2012 :: Assigning gsn's
ASSIGN_GSN: Skill strain not found.
ASSIGN_GSN: Skill signature attack not found.
ASSIGN_GSN: Skill miasma breath not found.
ASSIGN_GSN: Skill rikujokoro not found.
Mon Oct 29 21:42:47 2012 :: Loading DNS cache...
Mon Oct 29 21:42:47 2012 :: Reading in area files...
(help.are)
training.are  : Rooms: 203600 - 203799 Objs: 203600 - 203799 Mobs: 203600 - 203799
limbo.are     : Rooms:     2 - 99    Objs:     2 - 99    Mobs:     1 - 99
Mon Oct 29 21:42:47 2012 :: [*****] FILE: ims.are LINE: 1691
Mon Oct 29 21:42:47 2012 :: [*****] BUG: Load_resets: 'D': exit 1 not door.
Mon Oct 29 21:42:47 2012 :: [*****] FILE: ims.are LINE: 1691
Mon Oct 29 21:42:47 2012 :: [*****] BUG: Reset: D 0 666 1 1
Mon Oct 29 21:42:47 2012 :: [*****] BOOT: Load_resets: ims.are (2) 'D': exit 1 not door.
Mon Oct 29 21:42:47 2012 :: [*****] FILE: ims.are LINE: 1692
Mon Oct 29 21:42:47 2012 :: [*****] BUG: Get_mob_index: bad vnum 9002.
Mon Oct 29 21:42:47 2012 :: [*****] BOOT: Load_resets: ims.are (3) 'M': mobile 9002 doesn't exist.
Mon Oct 29 21:42:47 2012 :: [*****] FILE: ims.are LINE: 1692
Mon Oct 29 21:42:47 2012 :: [*****] BUG: Get_room_index: bad vnum 9001.
Mon Oct 29 21:42:47 2012 :: [*****] BOOT: Load_resets: ims.are (3) 'M': room 9001 doesn't exist.
Mon Oct 29 21:42:47 2012 :: [*****] FILE: ims.are LINE: 1693
Mon Oct 29 21:42:47 2012 :: [*****] BUG: Get_mob_index: bad vnum 9001.
Mon Oct 29 21:42:47 2012 :: [*****] BOOT: Load_resets: ims.are (4) 'M': mobile 9001 doesn't exist.
Mon Oct 29 21:42:47 2012 :: [*****] FILE: ims.are LINE: 1693
Mon Oct 29 21:42:47 2012 :: [*****] BUG: Get_room_index: bad vnum 9001.
Mon Oct 29 21:42:47 2012 :: [*****] BOOT: Load_resets: ims.are (4) 'M': room 9001 doesn't exist.
Mon Oct 29 21:42:47 2012 :: [*****] FILE: ims.are LINE: 1694
Mon Oct 29 21:42:47 2012 :: [*****] BUG: Get_obj_index: bad vnum 11001.
Mon Oct 29 21:42:47 2012 :: [*****] BOOT: Load_resets: ims.are (5) 'G': object 11001 doesn't exist.
Mon Oct 29 21:42:47 2012 :: [*****] FILE: ims.are LINE: 1695
Mon Oct 29 21:42:47 2012 :: [*****] BUG: Get_room_index: bad vnum 9001.
Mon Oct 29 21:42:47 2012 :: [*****] BOOT: Load_resets: ims.are (6) 'M': room 9001 doesn't exist.
Mon Oct 29 21:42:47 2012 :: [*****] FILE: ims.are LINE: 1696
Mon Oct 29 21:42:47 2012 :: [*****] BUG: Get_obj_index: bad vnum 3700.
Mon Oct 29 21:42:47 2012 :: [*****] BOOT: Load_resets: ims.are (7) 'O': object 3700 doesn't exist.
Mon Oct 29 21:42:47 2012 :: [*****] FILE: ims.are LINE: 1696
Mon Oct 29 21:42:47 2012 :: [*****] BUG: Get_room_index: bad vnum 9001.
Mon Oct 29 21:42:47 2012 :: [*****] BOOT: Load_resets: ims.are (7) 'O': room 9001 doesn't exist.
Mon Oct 29 21:42:47 2012 :: [*****] FILE: ims.are LINE: 1697
Mon Oct 29 21:42:47 2012 :: [*****] BUG: Get_room_index: bad vnum 9001.
Mon Oct 29 21:42:47 2012 :: [*****] FILE: ims.are LINE: 1697
Mon Oct 29 21:42:47 2012 :: [*****] BUG: Load_resets: 'D': room 9001 doesn't exist.
Mon Oct 29 21:42:47 2012 :: [*****] FILE: ims.are LINE: 1697
Mon Oct 29 21:42:47 2012 :: [*****] BUG: Reset: D 0 9001 5 1
Mon Oct 29 21:42:47 2012 :: [*****] BOOT: Load_resets: ims.are (8) 'D': room 9001 doesn't exist.
ims.are       : Rooms:   600 - 999   Objs:   600 - 999   Mobs:   600 - 999
intro.are     : Rooms:   100 - 199   Objs:   100 - 199   Mobs:   100 - 199
Mon Oct 29 21:42:47 2012 :: [*****] FILE: spaceships.are LINE: 1360
Mon Oct 29 21:42:47 2012 :: [*****] BUG: Get_obj_index: bad vnum 3922.
Mon Oct 29 21:42:47 2012 :: [*****] BOOT: Load_resets: spaceships.are (6) 'G': object 3922 doesn't exist.
spaceships.are: Rooms:  1000 - 1199  Objs:  1000 - 1199  Mobs:  1000 - 1199
afterlife.are : Rooms:  8800 - 8999  Objs:  8800 - 8999  Mobs:  8800 - 8999
FShip.are     : Rooms:  3000 - 3099  Objs:  3000 - 3099  Mobs:  3000 - 3099
kames_lookout.are: Rooms:  2000 - 2124  Objs:  2000 - 2009  Mobs:  2000 - 2007
roshis_island.are: Rooms:  2125 - 2167  Objs:  2010 - 2016  Mobs:  2008 - 2018
basement.are  : Rooms: 100700 - 100799 Objs: 100700 - 100799 Mobs: 100700 - 100799
geros_lab.are : Rooms:  2300 - 2399  Objs:  2300 - 2399  Mobs:  2300 - 2399
karakura.are  : Rooms:  9000 - 9099  Objs:  9000 - 9099  Mobs:  9000 - 9099
bunny_forest.are: Rooms:  9100 - 9199  Objs:  9100 - 9199  Mobs:  9100 - 9199
rabbit_gang.are: Rooms:  9200 - 9299  Objs:  9200 - 9299  Mobs:  9200 - 9299
namek.are     : Rooms:  5000 - 5099  Objs:  5000 - 5026  Mobs:  5000 - 5097
sewers.are    : Rooms:  5500 - 5599  Objs:  5500 - 5599  Mobs:  5500 - 5599
big_gete.are  : Rooms: 100000 - 100299 Objs: 100000 - 100299 Mobs: 100000 - 100299
ns42.are      : Rooms: 50000 - 50199 Objs: 50000 - 50199 Mobs: 50000 - 50199
satancity.are : Rooms:  3700 - 3999  Objs:  3700 - 3999  Mobs:  3700 - 3999
soltari_city.are: Rooms: 60000 - 60199 Objs: 60000 - 60199 Mobs: 60000 - 60199
fake_namek.are: Rooms: 40000 - 40099 Objs: 40000 - 40099 Mobs: 40000 - 40055
western_desert.are: Rooms: 70000 - 70199 Objs: 70000 - 70199 Mobs: 70000 - 70199
Mon Oct 29 21:42:47 2012 :: [*****] FILE: capsule_corp.are LINE: 7188
Mon Oct 29 21:42:47 2012 :: [*****] BUG: Get_mob_index: bad vnum 300704.
Mon Oct 29 21:42:47 2012 :: [*****] BOOT: Load_resets: capsule_corp.are (97) 'M': mobile 300704 doesn't exist.
Mon Oct 29 21:42:47 2012 :: [*****] FILE: capsule_corp.are LINE: 7252
Mon Oct 29 21:42:47 2012 :: [*****] BUG: Get_obj_index: bad vnum 4672.
Mon Oct 29 21:42:47 2012 :: [*****] BOOT: Load_resets: capsule_corp.are (161) 'E': object 4672 doesn't exist.
capsule_corp.are: Rooms: 110000 - 110299 Objs: 110000 - 110299 Mobs: 110000 - 110299
mount_areukk.are: Rooms: 150000 - 150299 Objs: 150000 - 150299 Mobs: 150000 - 150299
snake_way.are : Rooms: 100300 - 100499 Objs: 100300 - 100499 Mobs: 100300 - 100499
megaplex.are  : Rooms:  4000 - 4499  Objs:  4000 - 4499  Mobs:  4000 - 4499
wbr.are       : Rooms:  4500 - 4599  Objs:  4500 - 4599  Mobs:  4501 - 4592
battlefield.are: Rooms: 204451 - 204551 Objs: 204451 - 204551 Mobs: 204451 - 204551
ShadowDragons.are: Rooms: 300401 - 300401 Objs: 300401 - 300426 Mobs: 300401 - 300411
sd.are        : Rooms: 202300 - 202460 Objs: 202300 - 202372 Mobs: 202301 - 202459
sv.are        : Rooms: 202500 - 202999 Objs: 202500 - 202999 Mobs: 202500 - 202999
g2.are        : Rooms:   500 - 599   Objs:   500 - 599   Mobs:   500 - 599
marine.are    : Rooms: 300700 - 300799 Objs: 300700 - 300799 Mobs: 300700 - 300799
Sunlight.are  : Rooms:  9700 - 9799  Objs:  9700 - 9799  Mobs:  9700 - 9799
Facility.are  : Rooms:  9600 - 9699  Objs:  9600 - 9699  Mobs:  9600 - 9699
mbh.are       : Rooms: 60700 - 60800 Objs: 60700 - 60800 Mobs: 60700 - 60800
vc.are        : Rooms:  4600 - 4649  Objs:  4600 - 4649  Mobs:  4600 - 4649
cou3.are      : Rooms:  6000 - 6166  Objs:  6000 - 6024  Mobs:  6000 - 6198
Newbienamek.are: Rooms:  5900 - 5999  Objs:  5900 - 5999  Mobs:  5900 - 5999
cv.are        : Rooms: 210300 - 211699 Objs: 210300 - 210366 Mobs: 210300 - 210337
underground_cc.are: Rooms: 110300 - 110800 Objs: 110300 - 110800 Mobs: 110300 - 110800
IGMC.are      : Rooms: 232800 - 232899 Objs: 232800 - 232871 Mobs: 232800 - 232826
shadowearth.are: Rooms: 20500 - 20799 Objs: 20500 - 20799 Mobs: 20500 - 20799
battle_islands.are: Rooms: 60200 - 60399 Objs: 60200 - 60216 Mobs: 60200 - 60397
darkeclipse.are: Rooms:  8000 - 8025  Objs:  8000 - 8025  Mobs:  8000 - 8025
BDHQ.are      : Rooms:  1400 - 1499  Objs:  1400 - 1499  Mobs:  1400 - 1499
ACZ.are       : Rooms: 10100 - 10299 Objs: 10100 - 10299 Mobs: 10100 - 10299
Venom.are     : Rooms: 300600 - 300699 Objs: 300600 - 300699 Mobs: 300600 - 300699
lightlab.are  : Rooms: 20800 - 20899 Objs: 20800 - 20899 Mobs: 20800 - 20899
goddess.are   : Rooms:   400 - 499   Objs:   400 - 496   Mobs:   400 - 499
Subzero.are   : Rooms: 150300 - 150399 Objs: 150300 - 150399 Mobs: 150300 - 150399
ed439.are     : Rooms: 80000 - 80699 Objs: 80000 - 80699 Mobs: 80000 - 80699
Mon Oct 29 21:42:47 2012 :: [*****] FILE: ether.are LINE: 2591
Mon Oct 29 21:42:47 2012 :: [*****] BUG: Get_mob_index: bad vnum 302132.
Mon Oct 29 21:42:47 2012 :: [*****] BOOT: Load_resets: ether.are (33) 'M': mobile 302132 doesn't exist.
ether.are     : Rooms: 300000 - 300299 Objs: 300000 - 300299 Mobs: 300000 - 300299
roxas.are     : Rooms:  1600 - 1699  Objs:  1601 - 1610  Mobs:  1601 - 1616
ws.are        : Rooms: 200500 - 200599 Objs: 200500 - 200516 Mobs: 200500 - 200514
ws2.are       : Rooms:  1700 - 1798  Objs:  1700 - 1705  Mobs:  1700 - 1702
lunar.are     : Rooms:  4650 - 4699  Objs:  4650 - 4699  Mobs:  4650 - 4699
Mon Oct 29 21:42:47 2012 :: [*****] FILE: teo.are LINE: 2274
Mon Oct 29 21:42:47 2012 :: [*****] BUG: Get_obj_index: bad vnum 3101.
Mon Oct 29 21:42:47 2012 :: [*****] BOOT: Load_resets: teo.are (1) 'O': object 3101 doesn't exist.
teo.are       : Rooms:  3100 - 3198  Objs:  3120 - 3198  Mobs:  3100 - 3198
element.are   : Rooms:  4700 - 4899  Objs:  4700 - 4899  Mobs:  4700 - 4899
gokus_house.are: Rooms: 10400 - 10499 Objs: 10400 - 10499 Mobs: 10400 - 10499
Dark_Coliseum.are: Rooms: 25000 - 25170 Objs: 25000 - 25199 Mobs: 25000 - 25199
how.are       : Rooms:  1800 - 1899  Objs:  1800 - 1899  Mobs:  1800 - 1899
Mon Oct 29 21:42:47 2012 :: [*****] FILE: crystal.are LINE: 1524
Mon Oct 29 21:42:47 2012 :: [*****] BUG: Get_obj_index: bad vnum 300504.
Mon Oct 29 21:42:47 2012 :: [*****] BOOT: Load_resets: crystal.are (30) 'P': object 300504 doesn't exist.
crystal.are   : Rooms: 20900 - 21099 Objs: 20900 - 21099 Mobs: 20900 - 21099
cpc.are       : Rooms: 300500 - 300599 Objs: 300500 - 300599 Mobs: 300500 - 300599
traversetown.are: Rooms: 302100 - 302199 Objs: 302100 - 302199 Mobs: 302100 - 302199
super_maze.are: Rooms: 150500 - 150599 Objs: 150500 - 150599 Mobs: 150569 - 150598
Soltari_TF.are: Rooms: 300800 - 300899 Objs: 300800 - 300899 Mobs: 300800 - 300899
Ryusei2.are   : Rooms: 11000 - 11199 Objs: 11000 - 11199 Mobs: 11000 - 11199
Zynon.are     : Rooms: 26000 - 26100 Objs: 26000 - 26100 Mobs: 26000 - 26100
Kalisto.are   : Rooms: 28000 - 28999 Objs: 28000 - 28999 Mobs: 28000 - 28999
Mon Oct 29 21:42:47 2012 :: [*****] FILE: gods.are LINE: 1552
Mon Oct 29 21:42:47 2012 :: [*****] BUG: Load_resets: 'D': exit 0 not door.
Mon Oct 29 21:42:47 2012 :: [*****] FILE: gods.are LINE: 1552
Mon Oct 29 21:42:47 2012 :: [*****] BUG: Reset: D 0 1204 0 2
Mon Oct 29 21:42:47 2012 :: [*****] BOOT: Load_resets: gods.are (4) 'D': exit 0 not door.
gods.are      : Rooms:  1200 - 1399  Objs:  1200 - 1399  Mobs:  1200 - 1399
sixoffice.are : Rooms: 302900 - 303000 Objs: 302900 - 303000 Mobs: 302900 - 303000
Mon Oct 29 21:42:47 2012 :: [*****] FILE: rs1satellite.are LINE: 20227
Mon Oct 29 21:42:47 2012 :: [*****] BUG: Get_mob_index: bad vnum 303936.
Mon Oct 29 21:42:47 2012 :: [*****] BOOT: Load_resets: rs1satellite.are (4) 'M': mobile 303936 doesn't exist.
Mon Oct 29 21:42:47 2012 :: [*****] FILE: rs1satellite.are LINE: 20228
Mon Oct 29 21:42:47 2012 :: [*****] BUG: Get_obj_index: bad vnum 303905.
Mon Oct 29 21:42:47 2012 :: [*****] BOOT: Load_resets: rs1satellite.are (5) 'G': object 303905 doesn't exist.
rs1satellite.are: Rooms: 400000 - 401000 Objs: 400000 - 401000 Mobs: 400000 - 401000
ESFfacility.are: Rooms: 303900 - 308900 Objs: 303900 - 308900 Mobs: 303900 - 308900
Mon Oct 29 21:42:47 2012 :: Fixing exits
Mon Oct 29 21:42:47 2012 :: Loading economy
Mon Oct 29 21:42:47 2012 :: Initializing economy
Mon Oct 29 21:42:47 2012 :: Resetting areas
Mon Oct 29 21:42:47 2012 :: [*****] BUG: BDHQ.are: reset_area: no resets
Mon Oct 29 21:42:47 2012 :: Loading buildlist
Mon Oct 29 21:42:47 2012 :: ../gods/Zynon
Mon Oct 29 21:42:47 2012 :: ../gods/Primus
Primus.are    : Rooms: 204451 - 204550 Objs: 204451 - 204550 Mobs: 204451 - 204550
Mon Oct 29 21:42:47 2012 :: ../gods/Kotoko
Mon Oct 29 21:42:47 2012 :: ../gods/Six
Six.are       : Rooms: 303101 - 303201 Objs: 303101 - 303201 Mobs: 303101 - 303201
Mon Oct 29 21:42:47 2012 :: ../gods/Souless
Souless.are   : Rooms: 160000 - 160299 Objs: 160000 - 160299 Mobs: 160000 - 160299
Mon Oct 29 21:42:47 2012 :: ../gods/Hanato
Mon Oct 29 21:42:47 2012 :: ../gods/Kisuke
Kisuke.are    : Rooms: 303501 - 304001 Objs: 303501 - 304001 Mobs: 303501 - 304001
Mon Oct 29 21:42:47 2012 :: ../gods/Eremis
Mon Oct 29 21:42:47 2012 :: ../gods/Gaia
Mon Oct 29 21:42:47 2012 :: ../gods/Felgolos
Felgolos.are  : Rooms: 305000 - 305099 Objs: 305000 - 305099 Mobs: 305000 - 305099
Mon Oct 29 21:42:47 2012 :: ../gods/Kalisto
Mon Oct 29 21:42:47 2012 :: ../gods/Stiehl
Stiehl.are    : Rooms:  1400 - 1499  Objs:  1400 - 1499  Mobs:  1400 - 1499 
Mon Oct 29 21:42:47 2012 :: Loading boards
Mon Oct 29 21:42:47 2012 :: Loading Global Boards
Mon Oct 29 21:42:47 2012 :: Loading clans
Mon Oct 29 21:42:47 2012 :: Loading clans...
Mon Oct 29 21:42:47 2012 :: dc.cln
Mon Oct 29 21:42:47 2012 :: ba.cln
Mon Oct 29 21:42:47 2012 :: ls.cln
Mon Oct 29 21:42:47 2012 :: $
Mon Oct 29 21:42:47 2012 :: Loading alliance data
Mon Oct 29 21:42:47 2012 ::  Done clans 
Mon Oct 29 21:42:47 2012 :: Loading deities
Mon Oct 29 21:42:47 2012 :: Loading deities...
Mon Oct 29 21:42:47 2012 :: $
Mon Oct 29 21:42:47 2012 ::  Done deities 
Mon Oct 29 21:42:47 2012 :: Loading councils
Mon Oct 29 21:42:47 2012 :: Loading councils...
Mon Oct 29 21:42:47 2012 :: nc.council
Mon Oct 29 21:42:47 2012 :: $
Mon Oct 29 21:42:47 2012 ::  Done councils 
Mon Oct 29 21:42:47 2012 :: Loading watches
Mon Oct 29 21:42:47 2012 :: [*****] BUG: Fread_number: bad format. (~)
Mon Oct 29 21:42:47 2012 :: [*****] BUG: Fread_string_no_hash: EOF
Mon Oct 29 21:42:47 2012 :: [*****] BUG: fread_string_no_hash: EOF encountered on read.

Mon Oct 29 21:42:47 2012 :: [*****] BUG: fread_string_no_hash: EOF encountered on read.

Mon Oct 29 21:42:47 2012 :: [*****] BUG: Load_watchlist: no -1 found.
Mon Oct 29 21:42:47 2012 :: Loading bans
Mon Oct 29 21:42:47 2012 :: Done.
Mon Oct 29 21:42:47 2012 :: Loading reserved names
Mon Oct 29 21:42:47 2012 :: Loading auth namelist
Mon Oct 29 21:42:47 2012 :: Loading censored words
Mon Oct 29 21:42:47 2012 :: Updating rare/unique item counts.....
Mon Oct 29 21:42:47 2012 :: Checking player files....
Mon Oct 29 21:42:47 2012 :: Checking corpses....
Mon Oct 29 21:42:47 2012 :: Loading corpses
Corpse -> ../corpses/Jesta
Mon Oct 29 21:42:47 2012 :: [*****] FILE: ../corpses/Jesta LINE: 0
Mon Oct 29 21:42:47 2012 :: [*****] BUG: Load_corpses: # not found.
Corpse -> ../corpses/Draneer
Mon Oct 29 21:42:47 2012 :: [*****] FILE: ../corpses/Draneer LINE: 0
Mon Oct 29 21:42:47 2012 :: [*****] BUG: Load_corpses: # not found.
Mon Oct 29 21:42:47 2012 :: Loading space
Mon Oct 29 21:42:47 2012 :: Loading space...
Mon Oct 29 21:42:47 2012 ::  Done starsystems 
Mon Oct 29 21:42:47 2012 :: Loading ships
Mon Oct 29 21:42:47 2012 :: Loading ships...
Mon Oct 29 21:42:47 2012 ::  Done ships 
Mon Oct 29 21:42:47 2012 :: Loading governments
Mon Oct 29 21:42:47 2012 :: Loading planets...
Mon Oct 29 21:42:47 2012 :: earth.planet
Mon Oct 29 21:42:47 2012 :: cou.planet
Mon Oct 29 21:42:47 2012 :: vegeta.planet
Mon Oct 29 21:42:47 2012 :: namek.planet
Mon Oct 29 21:42:47 2012 :: furiza.planet
Mon Oct 29 21:42:47 2012 :: fakenamek.planet
Mon Oct 29 21:42:47 2012 :: planetplant.planet
Mon Oct 29 21:42:47 2012 :: Yardratian.planet
Mon Oct 29 21:42:47 2012 :: moon.planet
Mon Oct 29 21:42:47 2012 :: hyrule.planet
Mon Oct 29 21:42:47 2012 :: $
Mon Oct 29 21:42:47 2012 ::  Done planets 
Mon Oct 29 21:42:47 2012 :: Loading Immortal Hosts
Mon Oct 29 21:42:47 2012 :: No immortal host data
Mon Oct 29 21:42:47 2012 :: Loading Projects
Mon Oct 29 21:42:47 2012 :: Loading Logons
Mon Oct 29 21:42:47 2012 :: Loading Morphs
Mon Oct 29 21:42:47 2012 :: Optimizing Morphs.
Mon Oct 29 21:42:47 2012 :: Done.
Mon Oct 29 21:42:47 2012 :: Loading storerooms
Mon Oct 29 21:42:47 2012 :: Loading storage room
Mon Oct 29 21:42:47 2012 :: [*****] BUG: load_storeroom: bad vnum.
Mon Oct 29 21:42:47 2012 :: Loading storage room
Mon Oct 29 21:42:47 2012 :: Loading storage room
Mon Oct 29 21:42:47 2012 :: Loading storage room
Mon Oct 29 21:42:47 2012 :: Loading storage room
Mon Oct 29 21:42:47 2012 :: Loading Colors
Mon Oct 29 21:42:47 2012 :: Loading Housing System, Home Accessories Data, and Home Auctioning System
Mon Oct 29 21:42:47 2012 :: [*****] BUG: Fread_accessories: Accessory doesn't exist
Mon Oct 29 21:42:47 2012 :: [*****] BUG: Fread_accessories: Accessory doesn't exist
Mon Oct 29 21:42:47 2012 :: Loading changes
Mon Oct 29 21:42:47 2012 :: Loading hiscore tables
Mon Oct 29 21:42:47 2012 :: Initializing socket
Init_socket: bind: Address already in use
