&g|&G12/30 &g| &G70001&g|  Koronto:  &GFoldarea'd Western Desert to be freekill
&g|&G12/30 &g| &G  200&g|  Koronto:  &GGot rid of typo on Supreme Fighter long desc
&g|&G10/19 &g| &G250000&g|  Sixteen:  &Gauthlist
&g|&G02/06 &g| &G 3083&g|  Scyrok:  &Ggolenma
